%YAML 1.1
%TAG !u! tag:unity3d.com,2011:
--- !u!1045 &1
EditorBuildSettings:
  m_ObjectHideFlags: 0
  serializedVersion: 2
  m_Scenes:
  - enabled: 1
    path: Assets/Prototyping/Lukes Folder/Scenes/UiTestingGround.unity
    guid: 94bad2d2ab2d0004d975c61e8ec04f38
  - enabled: 1
    path: Assets/Prototyping/Lukes Folder/Scenes/Battle1Sample.unity
    guid: ea2f73cd1db55504f92ead606312aa46
  - enabled: 1
    path: Assets/Prototyping/Lukes Folder/Scenes/Battle2Sample.unity
    guid: fa518f5e8d900cd4cb441e55a200fbd2
  - enabled: 1
    path: Assets/Prototyping/Lukes Folder/Scenes/Battle3Sample.unity
    guid: 4237a11ac482c4d46a449063f915d2a5
  - enabled: 1
    path: Assets/Prototyping/Lukes Folder/Scenes/FinalBattleSample.unity
    guid: 7dd17b43e27280d4aa7d23529e64df59
  m_configObjects: {}
